\relax 
\@writefile{toc}{\contentsline {section}{\numberline {1}Introduction}{1}}
\newlabel{eq:higher}{{1}{1}}
\newlabel{eq:lower}{{2}{1}}
\@writefile{toc}{\contentsline {section}{\numberline {2}Implementation}{2}}
\@writefile{toc}{\contentsline {section}{\numberline {3}Results}{2}}
