0.2 0.8 0.04 0.08 0.00266667
0.4 1.6 0.16 0.32 0.0213333
0.6 2.4 0.36 0.72 0.072
0.8 3.2 0.64 1.28 0.170667
1 4 1 2 0.333333
1.2 4.8 1.44 2.88 0.576
1.4 5.6 1.96 3.92 0.914667
1.6 6.4 2.56 5.12 1.36533
1.8 7.2 3.24 6.48 1.944
2 8 4 8 2.66667
2.2 8.8 4.84 9.68 3.54933
2.4 9.6 5.76 11.52 4.608
2.6 10.4 6.76 13.52 5.85867
2.8 11.2 7.84 15.68 7.31733
3 12 9 18 9
3.2 12.8 10.24 20.48 10.9227
3.4 13.6 11.56 23.12 13.1013
3.6 14.4 12.96 25.92 15.552
3.8 15.2 14.44 28.88 18.2907
4 16 16 32 21.3333
4.2 18.4 17.64 35.44 24.696
4.4 20.8 19.36 39.36 28.3947
4.6 23.2 21.16 43.76 32.4453
4.8 25.6 23.04 48.64 36.864
5 28 25 54 41.6667
5.2 30.4 27.04 59.84 46.8693
5.4 32.8 29.16 66.16 52.488
5.6 35.2 31.36 72.96 58.5387
5.8 37.6 33.64 80.24 65.0373
6 40 36 88 72
6.2 42.4 38.44 96.24 79.4427
6.4 44.8 40.96 104.96 87.3813
6.6 47.2 43.56 114.16 95.832
6.8 49.6 46.24 123.84 104.811
7 52 49 134 114.333
7.2 54.4 51.84 144.64 124.416
7.4 56.8 54.76 155.76 135.075
7.6 59.2 57.76 167.36 146.325
7.8 61.6 60.84 179.44 158.184
8 64 64 192 170.667
8.2 68 67.24 205.2 183.789
8.4 72 70.56 219.2 197.568
8.6 76 73.96 234 212.019
8.8 80 77.44 249.6 227.157
9 84 81 266 243
9.2 88 84.64 283.2 259.563
9.4 92 88.36 301.2 276.861
9.6 96 92.16 320 294.912
9.8 100 96.04 339.6 313.731
10 104 100 360 333.333
10.2 108 104.04 381.2 353.736
10.4 112 108.16 403.2 374.955
10.6 116 112.36 426 397.005
10.8 120 116.64 449.6 419.904
11 124 121 474 443.667
11.2 128 125.44 499.2 468.309
11.4 132 129.96 525.2 493.848
11.6 136 134.56 552 520.299
11.8 140 139.24 579.6 547.677
12 144 144 608 576
12.2 149.6 148.84 637.36 605.283
12.4 155.2 153.76 667.84 635.541
12.6 160.8 158.76 699.44 666.792
12.8 166.4 163.84 732.16 699.051
13 172 169 766 732.333
13.2 177.6 174.24 800.96 766.656
13.4 183.2 179.56 837.04 802.035
13.6 188.8 184.96 874.24 838.485
13.8 194.4 190.44 912.56 876.024
14 200 196 952 914.667
14.2 205.6 201.64 992.56 954.429
14.4 211.2 207.36 1034.24 995.328
14.6 216.8 213.16 1077.04 1037.38
14.8 222.4 219.04 1120.96 1080.6
15 228 225 1166 1125
15.2 233.6 231.04 1212.16 1170.6
15.4 239.2 237.16 1259.44 1217.42
15.6 244.8 243.36 1307.84 1265.47
15.8 250.4 249.64 1357.36 1314.77
16 256 256 1408 1365.33
16.2 263.2 262.44 1459.92 1417.18
16.4 270.4 268.96 1513.28 1470.31
16.6 277.6 275.56 1568.08 1524.77
16.8 284.8 282.24 1624.32 1580.54
17 292 289 1682 1637.67
17.2 299.2 295.84 1741.12 1696.15
17.4 306.4 302.76 1801.68 1756.01
17.6 313.6 309.76 1863.68 1817.26
17.8 320.8 316.84 1927.12 1879.92
18 328 324 1992 1944
18.2 335.2 331.24 2058.32 2009.52
18.4 342.4 338.56 2126.08 2076.5
18.6 349.6 345.96 2195.28 2144.95
18.8 356.8 353.44 2265.92 2214.89
19 364 361 2338 2286.33
19.2 371.2 368.64 2411.52 2359.3
19.4 378.4 376.36 2486.48 2433.79
19.6 385.6 384.16 2562.88 2509.85
19.8 392.8 392.04 2640.72 2587.46
20 400 400 2720 2666.67
