

*******************************************************************************
Sun Jun 16 11:17:08 2019


FIT:    data read from 'error.txt'
        format = z
        #datapoints = 6
        residuals are weighted equally (unit weight)

function used for fitting: f(x)
	f(x)=A/sqrt(x)
fitted parameters initialized with current variable values

iter      chisq       delta/lim  lambda   A            
   0 5.9856712349e-04   0.00e+00  1.36e-02    1.000000e+00
   4 3.7920332844e-09  -2.48e-07  1.36e-06    2.660330e-01

After 4 iterations the fit converged.
final sum of squares of residuals : 3.79203e-09
rel. change during last iteration : -2.48087e-12

degrees of freedom    (FIT_NDF)                        : 5
rms of residuals      (FIT_STDFIT) = sqrt(WSSR/ndf)    : 2.75392e-05
variance of residuals (reduced chisquare) = WSSR/ndf   : 7.58407e-10

Final set of parameters            Asymptotic Standard Error
=======================            ==========================
A               = 0.266033         +/- 0.0008262    (0.3106%)


*******************************************************************************
Sun Jun 16 11:18:14 2019


FIT:    data read from 'error.txt'
        format = z
        #datapoints = 5
        residuals are weighted equally (unit weight)

function used for fitting: f(x)
	f(x)=A/sqrt(x)
fitted parameters initialized with current variable values

iter      chisq       delta/lim  lambda   A            
   0 5.9048608314e-05   0.00e+00  4.71e-03    1.000000e+00
   4 4.9985188509e-12  -5.23e-05  4.71e-07    2.709988e-01

After 4 iterations the fit converged.
final sum of squares of residuals : 4.99852e-12
rel. change during last iteration : -5.22962e-10

degrees of freedom    (FIT_NDF)                        : 4
rms of residuals      (FIT_STDFIT) = sqrt(WSSR/ndf)    : 1.11787e-06
variance of residuals (reduced chisquare) = WSSR/ndf   : 1.24963e-12

Final set of parameters            Asymptotic Standard Error
=======================            ==========================
A               = 0.270999         +/- 0.0001061    (0.03913%)


*******************************************************************************
Sun Jun 16 11:20:37 2019


FIT:    data read from 'error.txt'
        format = z
        #datapoints = 4
        residuals are weighted equally (unit weight)

function used for fitting: f(x)
	f(x)=A/sqrt(x)
fitted parameters initialized with current variable values

iter      chisq       delta/lim  lambda   A            
   0 5.9960949300e-03   0.00e+00  5.27e-02    1.000000e+00
   4 4.1282323889e-09  -2.26e-05  5.27e-06    2.653558e-01

After 4 iterations the fit converged.
final sum of squares of residuals : 4.12823e-09
rel. change during last iteration : -2.258e-10

degrees of freedom    (FIT_NDF)                        : 3
rms of residuals      (FIT_STDFIT) = sqrt(WSSR/ndf)    : 3.70955e-05
variance of residuals (reduced chisquare) = WSSR/ndf   : 1.37608e-09

Final set of parameters            Asymptotic Standard Error
=======================            ==========================
A               = 0.265356         +/- 0.0003519    (0.1326%)


*******************************************************************************
Sun Jun 16 11:22:13 2019


FIT:    data read from 'error.txt'
        format = z
        #datapoints = 4
        residuals are weighted equally (unit weight)

function used for fitting: f(x)
	f(x)=A/sqrt(x)
fitted parameters initialized with current variable values

iter      chisq       delta/lim  lambda   A            
   0 5.9960949300e-03   0.00e+00  5.27e-02    1.000000e+00
   4 4.1282323889e-09  -2.26e-05  5.27e-06    2.653558e-01

After 4 iterations the fit converged.
final sum of squares of residuals : 4.12823e-09
rel. change during last iteration : -2.258e-10

degrees of freedom    (FIT_NDF)                        : 3
rms of residuals      (FIT_STDFIT) = sqrt(WSSR/ndf)    : 3.70955e-05
variance of residuals (reduced chisquare) = WSSR/ndf   : 1.37608e-09

Final set of parameters            Asymptotic Standard Error
=======================            ==========================
A               = 0.265356         +/- 0.0003519    (0.1326%)
