<?xml version="1.0" encoding="utf-8"  standalone="no"?>
<svg 
 width="600" height="480"
 viewBox="0 0 600 480"
 xmlns="http://www.w3.org/2000/svg"
 xmlns:xlink="http://www.w3.org/1999/xlink"
>

<title>Gnuplot</title>
<desc>Produced by GNUPLOT 5.2 patchlevel 2 </desc>

<g id="gnuplot_canvas">

<rect x="0" y="0" width="600" height="480" fill="#ffffff"/>
<defs>

	<circle id='gpDot' r='0.5' stroke-width='0.5'/>
	<path id='gpPt0' stroke-width='0.222' stroke='currentColor' d='M-1,0 h2 M0,-1 v2'/>
	<path id='gpPt1' stroke-width='0.222' stroke='currentColor' d='M-1,-1 L1,1 M1,-1 L-1,1'/>
	<path id='gpPt2' stroke-width='0.222' stroke='currentColor' d='M-1,0 L1,0 M0,-1 L0,1 M-1,-1 L1,1 M-1,1 L1,-1'/>
	<rect id='gpPt3' stroke-width='0.222' stroke='currentColor' x='-1' y='-1' width='2' height='2'/>
	<rect id='gpPt4' stroke-width='0.222' stroke='currentColor' fill='currentColor' x='-1' y='-1' width='2' height='2'/>
	<circle id='gpPt5' stroke-width='0.222' stroke='currentColor' cx='0' cy='0' r='1'/>
	<use xlink:href='#gpPt5' id='gpPt6' fill='currentColor' stroke='none'/>
	<path id='gpPt7' stroke-width='0.222' stroke='currentColor' d='M0,-1.33 L-1.33,0.67 L1.33,0.67 z'/>
	<use xlink:href='#gpPt7' id='gpPt8' fill='currentColor' stroke='none'/>
	<use xlink:href='#gpPt7' id='gpPt9' stroke='currentColor' transform='rotate(180)'/>
	<use xlink:href='#gpPt9' id='gpPt10' fill='currentColor' stroke='none'/>
	<use xlink:href='#gpPt3' id='gpPt11' stroke='currentColor' transform='rotate(45)'/>
	<use xlink:href='#gpPt11' id='gpPt12' fill='currentColor' stroke='none'/>
	<path id='gpPt13' stroke-width='0.222' stroke='currentColor' d='M0,1.330 L1.265,0.411 L0.782,-1.067 L-0.782,-1.076 L-1.265,0.411 z'/>
	<use xlink:href='#gpPt13' id='gpPt14' fill='currentColor' stroke='none'/>
	<filter id='textbox' filterUnits='objectBoundingBox' x='0' y='0' height='1' width='1'>
	  <feFlood flood-color='#FFFFFF' flood-opacity='1' result='bgnd'/>
	  <feComposite in='SourceGraphic' in2='bgnd' operator='atop'/>
	</filter>
	<filter id='greybox' filterUnits='objectBoundingBox' x='0' y='0' height='1' width='1'>
	  <feFlood flood-color='lightgrey' flood-opacity='1' result='grey'/>
	  <feComposite in='SourceGraphic' in2='grey' operator='atop'/>
	</filter>
</defs>
<g fill="none" color="#FFFFFF" stroke="currentColor" stroke-width="1.00" stroke-linecap="butt" stroke-linejoin="miter">
</g>
<g fill="none" color="black" stroke="currentColor" stroke-width="1.00" stroke-linecap="butt" stroke-linejoin="miter">
	<path stroke='black'  d='M71.9,422.4 L80.9,422.4 M575.0,422.4 L566.0,422.4  '/>	<g transform="translate(63.6,426.3)" stroke="none" fill="black" font-family="Arial" font-size="12.00"  text-anchor="end">
		<text><tspan font-family="Arial" >-1</tspan></text>
	</g>
</g>
<g fill="none" color="black" stroke="currentColor" stroke-width="1.00" stroke-linecap="butt" stroke-linejoin="miter">
	<path stroke='black'  d='M71.9,348.7 L80.9,348.7 M575.0,348.7 L566.0,348.7  '/>	<g transform="translate(63.6,352.6)" stroke="none" fill="black" font-family="Arial" font-size="12.00"  text-anchor="end">
		<text><tspan font-family="Arial" >-0.5</tspan></text>
	</g>
</g>
<g fill="none" color="black" stroke="currentColor" stroke-width="1.00" stroke-linecap="butt" stroke-linejoin="miter">
	<path stroke='black'  d='M71.9,275.1 L80.9,275.1 M575.0,275.1 L566.0,275.1  '/>	<g transform="translate(63.6,279.0)" stroke="none" fill="black" font-family="Arial" font-size="12.00"  text-anchor="end">
		<text><tspan font-family="Arial" > 0</tspan></text>
	</g>
</g>
<g fill="none" color="black" stroke="currentColor" stroke-width="1.00" stroke-linecap="butt" stroke-linejoin="miter">
	<path stroke='black'  d='M71.9,201.4 L80.9,201.4 M575.0,201.4 L566.0,201.4  '/>	<g transform="translate(63.6,205.3)" stroke="none" fill="black" font-family="Arial" font-size="12.00"  text-anchor="end">
		<text><tspan font-family="Arial" > 0.5</tspan></text>
	</g>
</g>
<g fill="none" color="black" stroke="currentColor" stroke-width="1.00" stroke-linecap="butt" stroke-linejoin="miter">
	<path stroke='black'  d='M71.9,127.8 L80.9,127.8 M575.0,127.8 L566.0,127.8  '/>	<g transform="translate(63.6,131.7)" stroke="none" fill="black" font-family="Arial" font-size="12.00"  text-anchor="end">
		<text><tspan font-family="Arial" > 1</tspan></text>
	</g>
</g>
<g fill="none" color="black" stroke="currentColor" stroke-width="1.00" stroke-linecap="butt" stroke-linejoin="miter">
	<path stroke='black'  d='M71.9,54.1 L80.9,54.1 M575.0,54.1 L566.0,54.1  '/>	<g transform="translate(63.6,58.0)" stroke="none" fill="black" font-family="Arial" font-size="12.00"  text-anchor="end">
		<text><tspan font-family="Arial" > 1.5</tspan></text>
	</g>
</g>
<g fill="none" color="black" stroke="currentColor" stroke-width="1.00" stroke-linecap="butt" stroke-linejoin="miter">
	<path stroke='black'  d='M71.9,422.4 L71.9,413.4 M71.9,54.1 L71.9,63.1  '/>	<g transform="translate(71.9,444.3)" stroke="none" fill="black" font-family="Arial" font-size="12.00"  text-anchor="middle">
		<text><tspan font-family="Arial" > 0</tspan></text>
	</g>
</g>
<g fill="none" color="black" stroke="currentColor" stroke-width="1.00" stroke-linecap="butt" stroke-linejoin="miter">
	<path stroke='black'  d='M172.5,422.4 L172.5,413.4 M172.5,54.1 L172.5,63.1  '/>	<g transform="translate(172.5,444.3)" stroke="none" fill="black" font-family="Arial" font-size="12.00"  text-anchor="middle">
		<text><tspan font-family="Arial" > 1</tspan></text>
	</g>
</g>
<g fill="none" color="black" stroke="currentColor" stroke-width="1.00" stroke-linecap="butt" stroke-linejoin="miter">
	<path stroke='black'  d='M273.1,422.4 L273.1,413.4 M273.1,54.1 L273.1,63.1  '/>	<g transform="translate(273.1,444.3)" stroke="none" fill="black" font-family="Arial" font-size="12.00"  text-anchor="middle">
		<text><tspan font-family="Arial" > 2</tspan></text>
	</g>
</g>
<g fill="none" color="black" stroke="currentColor" stroke-width="1.00" stroke-linecap="butt" stroke-linejoin="miter">
	<path stroke='black'  d='M373.8,422.4 L373.8,413.4 M373.8,54.1 L373.8,63.1  '/>	<g transform="translate(373.8,444.3)" stroke="none" fill="black" font-family="Arial" font-size="12.00"  text-anchor="middle">
		<text><tspan font-family="Arial" > 3</tspan></text>
	</g>
</g>
<g fill="none" color="black" stroke="currentColor" stroke-width="1.00" stroke-linecap="butt" stroke-linejoin="miter">
	<path stroke='black'  d='M474.4,422.4 L474.4,413.4 M474.4,54.1 L474.4,63.1  '/>	<g transform="translate(474.4,444.3)" stroke="none" fill="black" font-family="Arial" font-size="12.00"  text-anchor="middle">
		<text><tspan font-family="Arial" > 4</tspan></text>
	</g>
</g>
<g fill="none" color="black" stroke="currentColor" stroke-width="1.00" stroke-linecap="butt" stroke-linejoin="miter">
	<path stroke='black'  d='M575.0,422.4 L575.0,413.4 M575.0,54.1 L575.0,63.1  '/>	<g transform="translate(575.0,444.3)" stroke="none" fill="black" font-family="Arial" font-size="12.00"  text-anchor="middle">
		<text><tspan font-family="Arial" > 5</tspan></text>
	</g>
</g>
<g fill="none" color="black" stroke="currentColor" stroke-width="1.00" stroke-linecap="butt" stroke-linejoin="miter">
</g>
<g fill="none" color="black" stroke="currentColor" stroke-width="1.00" stroke-linecap="butt" stroke-linejoin="miter">
	<path stroke='black'  d='M71.9,54.1 L71.9,422.4 L575.0,422.4 L575.0,54.1 L71.9,54.1 Z  '/></g>
<g fill="none" color="black" stroke="currentColor" stroke-width="1.00" stroke-linecap="butt" stroke-linejoin="miter">
	<g transform="translate(16.3,238.3) rotate(270)" stroke="none" fill="black" font-family="Arial" font-size="12.00"  text-anchor="middle">
		<text><tspan font-family="Arial" >y</tspan></text>
	</g>
</g>
<g fill="none" color="black" stroke="currentColor" stroke-width="1.00" stroke-linecap="butt" stroke-linejoin="miter">
	<g transform="translate(323.4,471.3)" stroke="none" fill="black" font-family="Arial" font-size="12.00"  text-anchor="middle">
		<text><tspan font-family="Arial" >x</tspan></text>
	</g>
</g>
<g fill="none" color="black" stroke="currentColor" stroke-width="1.00" stroke-linecap="butt" stroke-linejoin="miter">
	<g transform="translate(323.4,31.0)" stroke="none" fill="black" font-family="Arial" font-size="12.00"  text-anchor="middle">
		<text><tspan font-family="Arial" >neural network curve fitting</tspan></text>
	</g>
</g>
	<g id="gnuplot_plot_1" ><title>data</title>
<g fill="none" color="black" stroke="currentColor" stroke-width="1.00" stroke-linecap="butt" stroke-linejoin="miter">
	<g transform="translate(507.9,76.0)" stroke="none" fill="black" font-family="Arial" font-size="12.00"  text-anchor="end">
		<text><tspan font-family="Arial" >data</tspan></text>
	</g>
</g>
<g fill="none" color="black" stroke="currentColor" stroke-width="1.00" stroke-linecap="butt" stroke-linejoin="miter">
	<use xlink:href='#gpPt0' transform='translate(71.9,127.8) scale(4.50)' color='rgb(148,   0, 211)'/>
	<use xlink:href='#gpPt0' transform='translate(127.8,149.9) scale(4.50)' color='rgb(148,   0, 211)'/>
	<use xlink:href='#gpPt0' transform='translate(183.7,209.7) scale(4.50)' color='rgb(148,   0, 211)'/>
	<use xlink:href='#gpPt0' transform='translate(239.6,289.2) scale(4.50)' color='rgb(148,   0, 211)'/>
	<use xlink:href='#gpPt0' transform='translate(295.5,364.4) scale(4.50)' color='rgb(148,   0, 211)'/>
	<use xlink:href='#gpPt0' transform='translate(351.4,412.8) scale(4.50)' color='rgb(148,   0, 211)'/>
	<use xlink:href='#gpPt0' transform='translate(407.3,419.7) scale(4.50)' color='rgb(148,   0, 211)'/>
	<use xlink:href='#gpPt0' transform='translate(463.2,383.1) scale(4.50)' color='rgb(148,   0, 211)'/>
	<use xlink:href='#gpPt0' transform='translate(519.1,314.1) scale(4.50)' color='rgb(148,   0, 211)'/>
	<use xlink:href='#gpPt0' transform='translate(575.0,233.3) scale(4.50)' color='rgb(148,   0, 211)'/>
	<use xlink:href='#gpPt0' transform='translate(537.3,72.1) scale(4.50)' color='rgb(148,   0, 211)'/>
</g>
	</g>
	<g id="gnuplot_plot_2" ><title>fit</title>
<g fill="none" color="black" stroke="currentColor" stroke-width="1.00" stroke-linecap="butt" stroke-linejoin="miter">
	<g transform="translate(507.9,94.0)" stroke="none" fill="black" font-family="Arial" font-size="12.00"  text-anchor="end">
		<text><tspan font-family="Arial" >fit</tspan></text>
	</g>
</g>
<g fill="none" color="black" stroke="currentColor" stroke-width="1.00" stroke-linecap="butt" stroke-linejoin="miter">
	<path stroke='rgb(  0, 158, 115)'  d='M516.2,90.1 L558.4,90.1 M71.9,129.2 L73.5,129.1 L75.0,129.1 L76.6,129.1 L78.2,129.1 L79.8,129.2
		L81.3,129.3 L82.9,129.4 L84.5,129.6 L86.0,129.8 L87.6,130.1 L89.2,130.4 L90.8,130.8 L92.3,131.2
		L93.9,131.6 L95.5,132.1 L97.1,132.6 L98.6,133.1 L100.2,133.7 L101.8,134.3 L103.3,134.9 L104.9,135.6
		L106.5,136.4 L108.1,137.1 L109.6,137.9 L111.2,138.8 L112.8,139.6 L114.3,140.6 L115.9,141.5 L117.5,142.5
		L119.1,143.5 L120.6,144.5 L122.2,145.6 L123.8,146.7 L125.4,147.9 L126.9,149.1 L128.5,150.3 L130.1,151.5
		L131.6,152.8 L133.2,154.1 L134.8,155.5 L136.4,156.8 L137.9,158.2 L139.5,159.7 L141.1,161.1 L142.6,162.6
		L144.2,164.1 L145.8,165.7 L147.4,167.2 L148.9,168.8 L150.5,170.4 L152.1,172.1 L153.7,173.8 L155.2,175.5
		L156.8,177.2 L158.4,178.9 L159.9,180.7 L161.5,182.5 L163.1,184.3 L164.7,186.2 L166.2,188.0 L167.8,189.9
		L169.4,191.8 L170.9,193.7 L172.5,195.7 L174.1,197.6 L175.7,199.6 L177.2,201.6 L178.8,203.6 L180.4,205.6
		L182.0,207.7 L183.5,209.7 L185.1,211.8 L186.7,213.9 L188.2,216.0 L189.8,218.1 L191.4,220.3 L193.0,222.4
		L194.5,224.6 L196.1,226.7 L197.7,228.9 L199.2,231.1 L200.8,233.3 L202.4,235.5 L204.0,237.7 L205.5,240.0
		L207.1,242.2 L208.7,244.4 L210.3,246.7 L211.8,248.9 L213.4,251.2 L215.0,253.4 L216.5,255.7 L218.1,258.0
		L219.7,260.3 L221.3,262.5 L222.8,264.8 L224.4,267.1 L226.0,269.4 L227.5,271.7 L229.1,273.9 L230.7,276.2
		L232.3,278.5 L233.8,280.8 L235.4,283.1 L237.0,285.3 L238.6,287.6 L240.1,289.9 L241.7,292.1 L243.3,294.4
		L244.8,296.6 L246.4,298.9 L248.0,301.1 L249.6,303.4 L251.1,305.6 L252.7,307.8 L254.3,310.0 L255.8,312.2
		L257.4,314.4 L259.0,316.6 L260.6,318.8 L262.1,320.9 L263.7,323.1 L265.3,325.2 L266.9,327.3 L268.4,329.5
		L270.0,331.6 L271.6,333.6 L273.1,335.7 L274.7,337.8 L276.3,339.8 L277.9,341.8 L279.4,343.8 L281.0,345.8
		L282.6,347.8 L284.1,349.8 L285.7,351.7 L287.3,353.6 L288.9,355.5 L290.4,357.4 L292.0,359.3 L293.6,361.1
		L295.2,363.0 L296.7,364.8 L298.3,366.6 L299.9,368.3 L301.4,370.1 L303.0,371.8 L304.6,373.5 L306.2,375.1
		L307.7,376.8 L309.3,378.4 L310.9,380.0 L312.4,381.6 L314.0,383.1 L315.6,384.7 L317.2,386.2 L318.7,387.6
		L320.3,389.1 L321.9,390.5 L323.5,391.9 L325.0,393.2 L326.6,394.6 L328.2,395.9 L329.7,397.2 L331.3,398.4
		L332.9,399.6 L334.5,400.8 L336.0,402.0 L337.6,403.1 L339.2,404.2 L340.7,405.3 L342.3,406.3 L343.9,407.3
		L345.5,408.3 L347.0,409.3 L348.6,410.2 L350.2,411.1 L351.7,411.9 L353.3,412.7 L354.9,413.5 L356.5,414.3
		L358.0,415.0 L359.6,415.7 L361.2,416.3 L362.8,416.9 L364.3,417.5 L365.9,418.1 L367.5,418.6 L369.0,419.0
		L370.6,419.5 L372.2,419.9 L373.8,420.3 L375.3,420.6 L376.9,420.9 L378.5,421.2 L380.0,421.4 L381.6,421.6
		L383.2,421.8 L384.8,421.9 L386.3,422.0 L387.9,422.0 L389.5,422.1 L391.1,422.0 L392.6,422.0 L394.2,421.9
		L395.8,421.8 L397.3,421.6 L398.9,421.4 L400.5,421.1 L402.1,420.9 L403.6,420.6 L405.2,420.2 L406.8,419.8
		L408.3,419.4 L409.9,418.9 L411.5,418.4 L413.1,417.9 L414.6,417.3 L416.2,416.7 L417.8,416.1 L419.4,415.4
		L420.9,414.7 L422.5,413.9 L424.1,413.2 L425.6,412.3 L427.2,411.5 L428.8,410.6 L430.4,409.7 L431.9,408.7
		L433.5,407.7 L435.1,406.7 L436.6,405.6 L438.2,404.5 L439.8,403.4 L441.4,402.2 L442.9,401.0 L444.5,399.8
		L446.1,398.5 L447.7,397.2 L449.2,395.9 L450.8,394.6 L452.4,393.2 L453.9,391.8 L455.5,390.3 L457.1,388.9
		L458.7,387.4 L460.2,385.8 L461.8,384.3 L463.4,382.7 L464.9,381.1 L466.5,379.5 L468.1,377.8 L469.7,376.1
		L471.2,374.4 L472.8,372.7 L474.4,370.9 L476.0,369.2 L477.5,367.4 L479.1,365.6 L480.7,363.7 L482.2,361.9
		L483.8,360.0 L485.4,358.1 L487.0,356.2 L488.5,354.3 L490.1,352.3 L491.7,350.4 L493.2,348.4 L494.8,346.4
		L496.4,344.4 L498.0,342.4 L499.5,340.4 L501.1,338.3 L502.7,336.3 L504.3,334.2 L505.8,332.1 L507.4,330.0
		L509.0,327.9 L510.5,325.8 L512.1,323.7 L513.7,321.6 L515.3,319.4 L516.8,317.3 L518.4,315.1 L520.0,312.9
		L521.5,310.7 L523.1,308.6 L524.7,306.4 L526.3,304.2 L527.8,301.9 L529.4,299.7 L531.0,297.5 L532.6,295.3
		L534.1,293.0 L535.7,290.8 L537.3,288.5 L538.8,286.3 L540.4,284.0 L542.0,281.7 L543.6,279.4 L545.1,277.2
		L546.7,274.9 L548.3,272.6 L549.8,270.3 L551.4,268.0 L553.0,265.7 L554.6,263.4 L556.1,261.1 L557.7,258.8
		L559.3,256.4 L560.9,254.1 L562.4,251.8 L564.0,249.5 L565.6,247.2 L567.1,244.9 L568.7,242.5 L570.3,240.2
		L571.9,237.9 L573.4,235.6 L575.0,233.3  '/></g>
	</g>
	<g id="gnuplot_plot_3" ><title>derivative</title>
<g fill="none" color="black" stroke="currentColor" stroke-width="1.00" stroke-linecap="butt" stroke-linejoin="miter">
	<g transform="translate(507.9,112.0)" stroke="none" fill="black" font-family="Arial" font-size="12.00"  text-anchor="end">
		<text><tspan font-family="Arial" >derivative</tspan></text>
	</g>
</g>
<g fill="none" color="black" stroke="currentColor" stroke-width="1.00" stroke-linecap="butt" stroke-linejoin="miter">
	<path stroke='rgb( 86, 180, 233)'  d='M516.2,108.1 L558.4,108.1 M71.9,267.9 L73.5,270.5 L75.0,273.1 L76.6,275.6 L78.2,278.2 L79.8,280.8
		L81.3,283.4 L82.9,285.9 L84.5,288.5 L86.0,291.0 L87.6,293.5 L89.2,296.1 L90.8,298.6 L92.3,301.1
		L93.9,303.6 L95.5,306.0 L97.1,308.5 L98.6,310.9 L100.2,313.4 L101.8,315.8 L103.3,318.2 L104.9,320.5
		L106.5,322.9 L108.1,325.2 L109.6,327.6 L111.2,329.9 L112.8,332.2 L114.3,334.4 L115.9,336.7 L117.5,338.9
		L119.1,341.1 L120.6,343.3 L122.2,345.4 L123.8,347.5 L125.4,349.7 L126.9,351.7 L128.5,353.8 L130.1,355.8
		L131.6,357.8 L133.2,359.8 L134.8,361.8 L136.4,363.7 L137.9,365.6 L139.5,367.5 L141.1,369.3 L142.6,371.1
		L144.2,372.9 L145.8,374.7 L147.4,376.4 L148.9,378.1 L150.5,379.8 L152.1,381.4 L153.7,383.0 L155.2,384.6
		L156.8,386.2 L158.4,387.7 L159.9,389.2 L161.5,390.6 L163.1,392.0 L164.7,393.4 L166.2,394.8 L167.8,396.1
		L169.4,397.4 L170.9,398.7 L172.5,399.9 L174.1,401.1 L175.7,402.2 L177.2,403.4 L178.8,404.4 L180.4,405.5
		L182.0,406.5 L183.5,407.5 L185.1,408.5 L186.7,409.4 L188.2,410.3 L189.8,411.1 L191.4,411.9 L193.0,412.7
		L194.5,413.5 L196.1,414.2 L197.7,414.9 L199.2,415.5 L200.8,416.1 L202.4,416.7 L204.0,417.2 L205.5,417.7
		L207.1,418.2 L208.7,418.6 L210.3,419.0 L211.8,419.4 L213.4,419.7 L215.0,420.0 L216.5,420.3 L218.1,420.5
		L219.7,420.7 L221.3,420.8 L222.8,421.0 L224.4,421.1 L226.0,421.1 L227.5,421.1 L229.1,421.1 L230.7,421.1
		L232.3,421.0 L233.8,420.9 L235.4,420.7 L237.0,420.5 L238.6,420.3 L240.1,420.0 L241.7,419.7 L243.3,419.4
		L244.8,419.1 L246.4,418.7 L248.0,418.3 L249.6,417.8 L251.1,417.3 L252.7,416.8 L254.3,416.3 L255.8,415.7
		L257.4,415.1 L259.0,414.4 L260.6,413.7 L262.1,413.0 L263.7,412.3 L265.3,411.5 L266.9,410.7 L268.4,409.9
		L270.0,409.0 L271.6,408.1 L273.1,407.2 L274.7,406.3 L276.3,405.3 L277.9,404.3 L279.4,403.2 L281.0,402.1
		L282.6,401.0 L284.1,399.9 L285.7,398.8 L287.3,397.6 L288.9,396.4 L290.4,395.1 L292.0,393.9 L293.6,392.6
		L295.2,391.2 L296.7,389.9 L298.3,388.5 L299.9,387.1 L301.4,385.7 L303.0,384.2 L304.6,382.8 L306.2,381.3
		L307.7,379.7 L309.3,378.2 L310.9,376.6 L312.4,375.0 L314.0,373.4 L315.6,371.8 L317.2,370.1 L318.7,368.4
		L320.3,366.7 L321.9,365.0 L323.5,363.2 L325.0,361.4 L326.6,359.6 L328.2,357.8 L329.7,356.0 L331.3,354.1
		L332.9,352.3 L334.5,350.4 L336.0,348.5 L337.6,346.5 L339.2,344.6 L340.7,342.6 L342.3,340.6 L343.9,338.6
		L345.5,336.6 L347.0,334.6 L348.6,332.5 L350.2,330.5 L351.7,328.4 L353.3,326.3 L354.9,324.2 L356.5,322.1
		L358.0,319.9 L359.6,317.8 L361.2,315.6 L362.8,313.4 L364.3,311.2 L365.9,309.0 L367.5,306.8 L369.0,304.6
		L370.6,302.4 L372.2,300.1 L373.8,297.9 L375.3,295.6 L376.9,293.4 L378.5,291.1 L380.0,288.8 L381.6,286.5
		L383.2,284.2 L384.8,281.9 L386.3,279.6 L387.9,277.3 L389.5,274.9 L391.1,272.6 L392.6,270.3 L394.2,267.9
		L395.8,265.6 L397.3,263.3 L398.9,260.9 L400.5,258.6 L402.1,256.2 L403.6,253.9 L405.2,251.5 L406.8,249.2
		L408.3,246.8 L409.9,244.5 L411.5,242.2 L413.1,239.8 L414.6,237.5 L416.2,235.2 L417.8,232.8 L419.4,230.5
		L420.9,228.2 L422.5,225.9 L424.1,223.7 L425.6,221.4 L427.2,219.1 L428.8,216.9 L430.4,214.7 L431.9,212.4
		L433.5,210.2 L435.1,208.1 L436.6,205.9 L438.2,203.8 L439.8,201.6 L441.4,199.5 L442.9,197.5 L444.5,195.4
		L446.1,193.4 L447.7,191.4 L449.2,189.4 L450.8,187.5 L452.4,185.6 L453.9,183.7 L455.5,181.8 L457.1,180.0
		L458.7,178.2 L460.2,176.5 L461.8,174.8 L463.4,173.1 L464.9,171.5 L466.5,169.8 L468.1,168.3 L469.7,166.8
		L471.2,165.3 L472.8,163.8 L474.4,162.4 L476.0,161.0 L477.5,159.7 L479.1,158.4 L480.7,157.1 L482.2,155.9
		L483.8,154.7 L485.4,153.6 L487.0,152.4 L488.5,151.4 L490.1,150.3 L491.7,149.3 L493.2,148.3 L494.8,147.4
		L496.4,146.5 L498.0,145.6 L499.5,144.7 L501.1,143.9 L502.7,143.1 L504.3,142.3 L505.8,141.6 L507.4,140.9
		L509.0,140.2 L510.5,139.5 L512.1,138.8 L513.7,138.2 L515.3,137.6 L516.8,137.0 L518.4,136.4 L520.0,135.8
		L521.5,135.3 L523.1,134.7 L524.7,134.2 L526.3,133.7 L527.8,133.2 L529.4,132.8 L531.0,132.3 L532.6,131.9
		L534.1,131.4 L535.7,131.0 L537.3,130.6 L538.8,130.2 L540.4,129.8 L542.0,129.5 L543.6,129.2 L545.1,128.8
		L546.7,128.5 L548.3,128.3 L549.8,128.0 L551.4,127.8 L553.0,127.5 L554.6,127.4 L556.1,127.2 L557.7,127.1
		L559.3,126.9 L560.9,126.9 L562.4,126.8 L564.0,126.8 L565.6,126.8 L567.1,126.9 L568.7,126.9 L570.3,127.1
		L571.9,127.2 L573.4,127.4 L575.0,127.7  '/></g>
	</g>
	<g id="gnuplot_plot_4" ><title>antiderivative</title>
<g fill="none" color="black" stroke="currentColor" stroke-width="1.00" stroke-linecap="butt" stroke-linejoin="miter">
	<g transform="translate(507.9,130.0)" stroke="none" fill="black" font-family="Arial" font-size="12.00"  text-anchor="end">
		<text><tspan font-family="Arial" >antiderivative</tspan></text>
	</g>
</g>
<g fill="none" color="black" stroke="currentColor" stroke-width="1.00" stroke-linecap="butt" stroke-linejoin="miter">
	<path stroke='rgb(230, 159,   0)'  d='M516.2,126.1 L558.4,126.1 M71.9,275.1 L73.5,272.8 L75.0,270.5 L76.6,268.2 L78.2,266.0 L79.8,263.7
		L81.3,261.4 L82.9,259.1 L84.5,256.8 L86.0,254.6 L87.6,252.3 L89.2,250.0 L90.8,247.8 L92.3,245.5
		L93.9,243.3 L95.5,241.1 L97.1,238.8 L98.6,236.6 L100.2,234.4 L101.8,232.2 L103.3,230.0 L104.9,227.8
		L106.5,225.6 L108.1,223.5 L109.6,221.3 L111.2,219.2 L112.8,217.1 L114.3,214.9 L115.9,212.9 L117.5,210.8
		L119.1,208.7 L120.6,206.7 L122.2,204.6 L123.8,202.6 L125.4,200.6 L126.9,198.6 L128.5,196.7 L130.1,194.7
		L131.6,192.8 L133.2,190.9 L134.8,189.0 L136.4,187.2 L137.9,185.3 L139.5,183.5 L141.1,181.7 L142.6,180.0
		L144.2,178.2 L145.8,176.5 L147.4,174.8 L148.9,173.1 L150.5,171.5 L152.1,169.9 L153.7,168.3 L155.2,166.7
		L156.8,165.2 L158.4,163.6 L159.9,162.1 L161.5,160.7 L163.1,159.3 L164.7,157.9 L166.2,156.5 L167.8,155.1
		L169.4,153.8 L170.9,152.5 L172.5,151.3 L174.1,150.0 L175.7,148.9 L177.2,147.7 L178.8,146.6 L180.4,145.5
		L182.0,144.4 L183.5,143.4 L185.1,142.3 L186.7,141.4 L188.2,140.4 L189.8,139.5 L191.4,138.7 L193.0,137.8
		L194.5,137.0 L196.1,136.2 L197.7,135.5 L199.2,134.8 L200.8,134.1 L202.4,133.5 L204.0,132.9 L205.5,132.3
		L207.1,131.8 L208.7,131.3 L210.3,130.8 L211.8,130.4 L213.4,130.0 L215.0,129.7 L216.5,129.3 L218.1,129.1
		L219.7,128.8 L221.3,128.6 L222.8,128.4 L224.4,128.3 L226.0,128.2 L227.5,128.1 L229.1,128.1 L230.7,128.1
		L232.3,128.1 L233.8,128.2 L235.4,128.3 L237.0,128.4 L238.6,128.6 L240.1,128.8 L241.7,129.1 L243.3,129.3
		L244.8,129.7 L246.4,130.0 L248.0,130.4 L249.6,130.8 L251.1,131.3 L252.7,131.8 L254.3,132.3 L255.8,132.9
		L257.4,133.5 L259.0,134.1 L260.6,134.8 L262.1,135.5 L263.7,136.2 L265.3,137.0 L266.9,137.8 L268.4,138.6
		L270.0,139.5 L271.6,140.4 L273.1,141.3 L274.7,142.3 L276.3,143.3 L277.9,144.3 L279.4,145.3 L281.0,146.4
		L282.6,147.5 L284.1,148.7 L285.7,149.9 L287.3,151.1 L288.9,152.3 L290.4,153.6 L292.0,154.9 L293.6,156.2
		L295.2,157.6 L296.7,159.0 L298.3,160.4 L299.9,161.8 L301.4,163.3 L303.0,164.8 L304.6,166.3 L306.2,167.9
		L307.7,169.5 L309.3,171.1 L310.9,172.7 L312.4,174.3 L314.0,176.0 L315.6,177.7 L317.2,179.4 L318.7,181.2
		L320.3,183.0 L321.9,184.8 L323.5,186.6 L325.0,188.4 L326.6,190.3 L328.2,192.1 L329.7,194.0 L331.3,196.0
		L332.9,197.9 L334.5,199.8 L336.0,201.8 L337.6,203.8 L339.2,205.8 L340.7,207.8 L342.3,209.9 L343.9,211.9
		L345.5,214.0 L347.0,216.1 L348.6,218.2 L350.2,220.3 L351.7,222.5 L353.3,224.6 L354.9,226.8 L356.5,228.9
		L358.0,231.1 L359.6,233.3 L361.2,235.5 L362.8,237.7 L364.3,239.9 L365.9,242.2 L367.5,244.4 L369.0,246.7
		L370.6,248.9 L372.2,251.2 L373.8,253.4 L375.3,255.7 L376.9,258.0 L378.5,260.3 L380.0,262.5 L381.6,264.8
		L383.2,267.1 L384.8,269.4 L386.3,271.7 L387.9,274.0 L389.5,276.3 L391.1,278.6 L392.6,280.9 L394.2,283.2
		L395.8,285.5 L397.3,287.8 L398.9,290.1 L400.5,292.3 L402.1,294.6 L403.6,296.9 L405.2,299.2 L406.8,301.4
		L408.3,303.7 L409.9,305.9 L411.5,308.2 L413.1,310.4 L414.6,312.7 L416.2,314.9 L417.8,317.1 L419.4,319.3
		L420.9,321.5 L422.5,323.6 L424.1,325.8 L425.6,328.0 L427.2,330.1 L428.8,332.2 L430.4,334.3 L431.9,336.4
		L433.5,338.5 L435.1,340.6 L436.6,342.6 L438.2,344.6 L439.8,346.7 L441.4,348.7 L442.9,350.6 L444.5,352.6
		L446.1,354.5 L447.7,356.4 L449.2,358.3 L450.8,360.2 L452.4,362.1 L453.9,363.9 L455.5,365.7 L457.1,367.5
		L458.7,369.3 L460.2,371.0 L461.8,372.7 L463.4,374.4 L464.9,376.1 L466.5,377.8 L468.1,379.4 L469.7,381.0
		L471.2,382.5 L472.8,384.1 L474.4,385.6 L476.0,387.1 L477.5,388.5 L479.1,389.9 L480.7,391.3 L482.2,392.7
		L483.8,394.1 L485.4,395.4 L487.0,396.6 L488.5,397.9 L490.1,399.1 L491.7,400.3 L493.2,401.5 L494.8,402.6
		L496.4,403.7 L498.0,404.8 L499.5,405.8 L501.1,406.8 L502.7,407.8 L504.3,408.7 L505.8,409.6 L507.4,410.5
		L509.0,411.4 L510.5,412.2 L512.1,412.9 L513.7,413.7 L515.3,414.4 L516.8,415.1 L518.4,415.7 L520.0,416.3
		L521.5,416.9 L523.1,417.4 L524.7,417.9 L526.3,418.4 L527.8,418.8 L529.4,419.2 L531.0,419.6 L532.6,419.9
		L534.1,420.2 L535.7,420.5 L537.3,420.7 L538.8,420.9 L540.4,421.1 L542.0,421.2 L543.6,421.3 L545.1,421.3
		L546.7,421.4 L548.3,421.3 L549.8,421.3 L551.4,421.2 L553.0,421.1 L554.6,420.9 L556.1,420.7 L557.7,420.5
		L559.3,420.2 L560.9,419.9 L562.4,419.5 L564.0,419.1 L565.6,418.7 L567.1,418.3 L568.7,417.8 L570.3,417.3
		L571.9,416.7 L573.4,416.1 L575.0,415.5  '/></g>
	</g>
<g fill="none" color="#FFFFFF" stroke="rgb(230, 159,   0)" stroke-width="2.00" stroke-linecap="butt" stroke-linejoin="miter">
</g>
<g fill="none" color="black" stroke="currentColor" stroke-width="2.00" stroke-linecap="butt" stroke-linejoin="miter">
</g>
<g fill="none" color="black" stroke="black" stroke-width="1.00" stroke-linecap="butt" stroke-linejoin="miter">
</g>
<g fill="none" color="black" stroke="currentColor" stroke-width="1.00" stroke-linecap="butt" stroke-linejoin="miter">
	<path stroke='black'  d='M71.9,54.1 L71.9,422.4 L575.0,422.4 L575.0,54.1 L71.9,54.1 Z  '/></g>
<g fill="none" color="black" stroke="currentColor" stroke-width="1.00" stroke-linecap="butt" stroke-linejoin="miter">
</g>
</g>
</svg>

