\relax 
\@writefile{toc}{\contentsline {section}{\numberline {1}Description of the problem}{1}}
\@writefile{toc}{\contentsline {section}{\numberline {2}Steps to solution}{1}}
\@writefile{toc}{\contentsline {subsection}{\numberline {2.1}Creation of $n$ x $n$ matrix}{1}}
\@writefile{toc}{\contentsline {subsection}{\numberline {2.2}Matrix eigenvalues}{1}}
\@writefile{lof}{\contentsline {figure}{\numberline {1}{\ignorespaces Largest eigenvalue for real symmetric matrix $n$ x $n$}}{2}}
\@writefile{toc}{\contentsline {subsection}{\numberline {2.3}Maximum eigenvalue as a function of $n$}{2}}
