\relax 
\@writefile{toc}{\contentsline {section}{\numberline {1}Introduction}{1}}
\@writefile{toc}{\contentsline {section}{\numberline {2}Name}{1}}
\@writefile{toc}{\contentsline {section}{\numberline {3}Plot}{1}}
\@writefile{lof}{\contentsline {figure}{\numberline {1}{\ignorespaces Plot of the error function, calculated with integration and gsl-library function.}}{2}}
